{"frames": [

{
	"filename": "actions/dot/attack",
	"frame": {"x":190,"y":0,"w":24,"h":24},
	"rotated": false,
	"trimmed": false,
	"spriteSourceSize": {"x":0,"y":0,"w":24,"h":24},
	"sourceSize": {"w":24,"h":24}
},
{
	"filename": "actions/dot/block",
	"frame": {"x":190,"y":24,"w":24,"h":24},
	"rotated": false,
	"trimmed": false,
	"spriteSourceSize": {"x":0,"y":0,"w":24,"h":24},
	"sourceSize": {"w":24,"h":24}
},
{
	"filename": "actions/dot/heavyattack",
	"frame": {"x":190,"y":48,"w":24,"h":24},
	"rotated": false,
	"trimmed": false,
	"spriteSourceSize": {"x":0,"y":0,"w":24,"h":24},
	"sourceSize": {"w":24,"h":24}
},
{
	"filename": "actions/dot/stun",
	"frame": {"x":190,"y":72,"w":24,"h":24},
	"rotated": false,
	"trimmed": false,
	"spriteSourceSize": {"x":0,"y":0,"w":24,"h":24},
	"sourceSize": {"w":24,"h":24}
},
{
	"filename": "actions/dot/throw",
	"frame": {"x":75,"y":202,"w":24,"h":24},
	"rotated": false,
	"trimmed": false,
	"spriteSourceSize": {"x":0,"y":0,"w":24,"h":24},
	"sourceSize": {"w":24,"h":24}
},
{
	"filename": "actions/square/attack",
	"frame": {"x":214,"y":0,"w":19,"h":26},
	"rotated": false,
	"trimmed": false,
	"spriteSourceSize": {"x":0,"y":0,"w":19,"h":26},
	"sourceSize": {"w":19,"h":26}
},
{
	"filename": "actions/square/block",
	"frame": {"x":214,"y":26,"w":19,"h":26},
	"rotated": false,
	"trimmed": false,
	"spriteSourceSize": {"x":0,"y":0,"w":19,"h":26},
	"sourceSize": {"w":19,"h":26}
},
{
	"filename": "actions/square/heavyattack",
	"frame": {"x":214,"y":52,"w":19,"h":26},
	"rotated": false,
	"trimmed": false,
	"spriteSourceSize": {"x":0,"y":0,"w":19,"h":26},
	"sourceSize": {"w":19,"h":26}
},
{
	"filename": "actions/square/stun",
	"frame": {"x":214,"y":78,"w":19,"h":26},
	"rotated": false,
	"trimmed": false,
	"spriteSourceSize": {"x":0,"y":0,"w":19,"h":26},
	"sourceSize": {"w":19,"h":26}
},
{
	"filename": "actions/square/throw",
	"frame": {"x":0,"y":202,"w":19,"h":26},
	"rotated": false,
	"trimmed": false,
	"spriteSourceSize": {"x":0,"y":0,"w":19,"h":26},
	"sourceSize": {"w":19,"h":26}
},
{
	"filename": "buttons/blue/down",
	"frame": {"x":98,"y":143,"w":49,"h":45},
	"rotated": false,
	"trimmed": false,
	"spriteSourceSize": {"x":0,"y":0,"w":49,"h":45},
	"sourceSize": {"w":49,"h":45}
},
{
	"filename": "buttons/blue/up",
	"frame": {"x":0,"y":104,"w":49,"h":49},
	"rotated": false,
	"trimmed": false,
	"spriteSourceSize": {"x":0,"y":0,"w":49,"h":49},
	"sourceSize": {"w":49,"h":49}
},
{
	"filename": "buttons/green/down",
	"frame": {"x":99,"y":188,"w":49,"h":45},
	"rotated": false,
	"trimmed": false,
	"spriteSourceSize": {"x":0,"y":0,"w":49,"h":45},
	"sourceSize": {"w":49,"h":45}
},
{
	"filename": "buttons/green/up",
	"frame": {"x":0,"y":153,"w":49,"h":49},
	"rotated": false,
	"trimmed": false,
	"spriteSourceSize": {"x":0,"y":0,"w":49,"h":49},
	"sourceSize": {"w":49,"h":49}
},
{
	"filename": "buttons/grey/down",
	"frame": {"x":147,"y":143,"w":49,"h":45},
	"rotated": false,
	"trimmed": false,
	"spriteSourceSize": {"x":0,"y":0,"w":49,"h":45},
	"sourceSize": {"w":49,"h":45}
},
{
	"filename": "buttons/grey/up",
	"frame": {"x":49,"y":104,"w":49,"h":49},
	"rotated": false,
	"trimmed": false,
	"spriteSourceSize": {"x":0,"y":0,"w":49,"h":49},
	"sourceSize": {"w":49,"h":49}
},
{
	"filename": "buttons/red/down",
	"frame": {"x":148,"y":188,"w":49,"h":45},
	"rotated": false,
	"trimmed": false,
	"spriteSourceSize": {"x":0,"y":0,"w":49,"h":45},
	"sourceSize": {"w":49,"h":45}
},
{
	"filename": "buttons/red/up",
	"frame": {"x":49,"y":153,"w":49,"h":49},
	"rotated": false,
	"trimmed": false,
	"spriteSourceSize": {"x":0,"y":0,"w":49,"h":49},
	"sourceSize": {"w":49,"h":49}
},
{
	"filename": "buttons/yellow/down",
	"frame": {"x":148,"y":96,"w":49,"h":45},
	"rotated": false,
	"trimmed": false,
	"spriteSourceSize": {"x":0,"y":0,"w":49,"h":45},
	"sourceSize": {"w":49,"h":45}
},
{
	"filename": "buttons/yellow/up",
	"frame": {"x":99,"y":94,"w":49,"h":49},
	"rotated": false,
	"trimmed": false,
	"spriteSourceSize": {"x":0,"y":0,"w":49,"h":49},
	"sourceSize": {"w":49,"h":49}
},
{
	"filename": "health/opponent/left",
	"frame": {"x":51,"y":202,"w":6,"h":26},
	"rotated": false,
	"trimmed": false,
	"spriteSourceSize": {"x":0,"y":0,"w":6,"h":26},
	"sourceSize": {"w":6,"h":26}
},
{
	"filename": "health/opponent/mid",
	"frame": {"x":19,"y":202,"w":16,"h":26},
	"rotated": false,
	"trimmed": false,
	"spriteSourceSize": {"x":0,"y":0,"w":16,"h":26},
	"sourceSize": {"w":16,"h":26}
},
{
	"filename": "health/opponent/right",
	"frame": {"x":57,"y":202,"w":6,"h":26},
	"rotated": false,
	"trimmed": false,
	"spriteSourceSize": {"x":0,"y":0,"w":6,"h":26},
	"sourceSize": {"w":6,"h":26}
},
{
	"filename": "health/player/left",
	"frame": {"x":63,"y":202,"w":6,"h":26},
	"rotated": false,
	"trimmed": false,
	"spriteSourceSize": {"x":0,"y":0,"w":6,"h":26},
	"sourceSize": {"w":6,"h":26}
},
{
	"filename": "health/player/mid",
	"frame": {"x":35,"y":202,"w":16,"h":26},
	"rotated": false,
	"trimmed": false,
	"spriteSourceSize": {"x":0,"y":0,"w":16,"h":26},
	"sourceSize": {"w":16,"h":26}
},
{
	"filename": "health/player/right",
	"frame": {"x":69,"y":202,"w":6,"h":26},
	"rotated": false,
	"trimmed": false,
	"spriteSourceSize": {"x":0,"y":0,"w":6,"h":26},
	"sourceSize": {"w":6,"h":26}
},
{
	"filename": "loader-bar",
	"frame": {"x":0,"y":0,"w":190,"h":49},
	"rotated": false,
	"trimmed": false,
	"spriteSourceSize": {"x":0,"y":0,"w":190,"h":49},
	"sourceSize": {"w":190,"h":49}
},
{
	"filename": "loader-bg",
	"frame": {"x":0,"y":49,"w":190,"h":45},
	"rotated": false,
	"trimmed": false,
	"spriteSourceSize": {"x":0,"y":0,"w":190,"h":45},
	"sourceSize": {"w":190,"h":45}
}],
"meta": {
	"app": "http://www.codeandweb.com/texturepacker",
	"version": "1.0",
	"image": "ui.png",
	"format": "RGBA8888",
	"size": {"w":233,"h":233},
	"scale": "1",
	"smartupdate": "$TexturePacker:SmartUpdate:06a83fff3b2d522081fa9b9f3c7f64d4:3f0187cc7ff88729cd8bd4b501c99865:5b04aa198265472a3c5f56958d78e97b$"
}
}
